<?xml version="1.0" encoding="UTF-8"?>
<svg width="127px" height="38px" viewBox="0 0 127 38" version="1.1" xmlns="http://www.w3.org/2000/svg" xmlns:xlink="http://www.w3.org/1999/xlink">
    <!-- Generator: Sketch 46.2 (44496) - http://www.bohemiancoding.com/sketch -->
    <title>Logo/ Interfax-white</title>
    <desc>Created with Sketch.</desc>
    <defs></defs>
    <g id="Symbols" stroke="none" stroke-width="1" fill="none" fill-rule="evenodd">
        <g id="Logo/-Interfax-white" fill="#FFFFFF">
            <path d="M0.754602664,37.5794291 L2.36293478,37.5794291 L2.36293478,32.3728463 L0.754602664,32.3728463 L0.754602664,37.5794291 Z M6.0702766,32.3728463 L7.57576467,32.3728463 L9.5260842,35.2504951 L9.5260842,32.3728463 L11.041485,32.3728463 L11.041485,37.5794291 L9.5260842,37.5794291 L7.58567735,34.7166776 L7.58567735,37.5794291 L6.0702766,37.5794291 L6.0702766,32.3728463 Z M14.28417,32.3728463 L19.1698815,32.3728463 L19.1698815,33.6614569 L17.5305722,33.6614569 L17.5305722,37.5794291 L15.9222401,37.5794291 L15.9222401,33.6614569 L14.28417,33.6614569 L14.28417,32.3728463 Z M22.43487,32.3728463 L26.7382116,32.3728463 L26.7382116,33.4876559 L24.0444412,33.4876559 L24.0444412,34.3119694 L26.5461535,34.3119694 L26.5461535,35.3733972 L24.0444412,35.3733972 L24.0444412,36.3963405 L26.8150349,36.3963405 L26.8150349,37.5794291 L22.43487,37.5794291 L22.43487,32.3728463 Z M30.2460608,37.5794291 L30.2460608,32.3728463 L32.9262013,32.3728463 C33.4243134,32.3728463 33.8034733,32.4125723 34.0649202,32.5007142 C34.3276062,32.5851319 34.5394897,32.7427943 34.7018098,32.9749428 C34.8628909,33.203367 34.9421923,33.4864145 34.9421923,33.8178779 C34.9421923,34.105891 34.8814771,34.3541782 34.7588077,34.5639809 C34.6348993,34.7750251 34.4663837,34.9438604 34.2495439,35.0742111 C34.1132445,35.1561459 33.9236646,35.2256663 33.6845212,35.281531 C33.871623,35.3436028 34.0128787,35.4093989 34.1033319,35.4727121 C34.1603298,35.5149209 34.2483048,35.6067872 34.3585833,35.7483109 C34.4725792,35.8861103 34.5444461,35.999081 34.5816186,36.0710843 L35.3671984,37.5794291 L33.5531782,37.5794291 L32.688297,35.9879081 C32.5792575,35.7805883 32.4801307,35.6465132 32.3946339,35.5856828 C32.2756817,35.5049895 32.1505342,35.4652635 31.9981267,35.4652635 L31.855632,35.4652635 L31.855632,37.5794291 L30.2460608,37.5794291 Z M31.855632,34.4795633 L32.5383677,34.4795633 C32.6127128,34.4795633 32.7539685,34.4572174 32.9670911,34.4088014 C33.0761305,34.3889385 33.1591492,34.3330738 33.228538,34.2474147 C33.2966876,34.1567899 33.3326211,34.0587165 33.3326211,33.9457458 C33.3326211,33.7781519 33.2781014,33.650284 33.170301,33.5609006 C33.0649788,33.4702758 32.863008,33.4255841 32.5681058,33.4255841 L31.855632,33.4255841 L31.855632,34.4795633 Z M38.4190643,32.3728463 L42.3928094,32.3728463 L42.3928094,33.4951045 L40.0311137,33.4951045 L40.0311137,34.3976285 L42.0533002,34.3976285 L42.0533002,35.4491248 L40.0311137,35.4491248 L40.0311137,37.5794291 L38.4190643,37.5794291 L38.4190643,32.3728463 Z M48.3119177,36.7228382 L46.4929411,36.7228382 L46.2352115,37.5794291 L44.5959022,37.5794291 L46.5474609,32.3728463 L48.3082004,32.3728463 L50.2535636,37.5794291 L48.5746036,37.5794291 L48.3119177,36.7228382 Z M47.9699302,35.5931314 L47.4073857,33.7210459 L46.8361676,35.5931314 L47.9699302,35.5931314 Z M52.9547685,32.3728463 L54.7229426,32.3728463 L55.6448217,33.9742988 L56.5394409,32.3728463 L58.292746,32.3728463 L56.6757403,34.8942029 L58.4463925,37.5794291 L56.6360896,37.5794291 L55.6138446,35.9059733 L54.5779697,37.5794291 L52.786253,37.5794291 L54.582926,34.8656499 L52.9547685,32.3728463 Z M126.82405,16.4377733 L123.301332,17.0622157 C123.18238,16.3595629 122.91102,15.833194 122.482297,15.4793847 C122.062247,15.1255755 121.510854,14.9455672 120.829358,14.9455672 C119.93226,14.9455672 119.217308,15.2596505 118.678306,15.88161 C118.140543,16.4998451 117.871662,17.54141 117.871662,18.996373 C117.871662,20.6189299 118.144261,21.7622925 118.68698,22.4289437 C119.232177,23.0980777 119.958281,23.4295411 120.872725,23.4295411 C121.555461,23.4295411 122.114289,23.2346357 122.554164,22.8411004 C122.985365,22.4463238 123.295136,21.7647754 123.477282,20.8001796 L127,21.3886203 C126.633231,23.033523 125.93067,24.2762005 124.892317,25.1154112 C123.856442,25.9558634 122.461232,26.3742274 120.720318,26.3742274 C118.735304,26.3742274 117.157949,25.7448193 115.97834,24.4860032 C114.799971,23.227187 114.211405,21.4842108 114.211405,19.2558332 C114.211405,17.0001439 114.802449,15.2459947 115.985775,13.9909029 C117.17034,12.7358111 118.768759,12.1088859 120.783511,12.1088859 C122.440168,12.1088859 123.746163,12.465178 124.727518,13.1777623 C125.697722,13.891588 126.404,14.9766031 126.82405,16.4377733 Z M106.584838,26.0415225 L106.584838,20.1533914 C107.108971,20.1533914 107.505478,20.2676035 107.768164,20.4923034 C108.035807,20.7194862 108.346817,21.2272336 108.70863,22.0180283 L110.300854,26.0415225 L114.118474,26.0415225 L112.335431,22.1930708 C112.284629,22.0974802 112.236304,22.0080968 112.196653,21.9249206 C111.419747,20.2700864 110.465652,19.2868691 109.340563,18.9715443 C110.119947,18.6810483 110.717186,17.9076336 111.134758,16.6612318 C111.437094,15.7301548 111.720845,15.17275 111.982292,14.9852932 C112.243739,14.8065264 112.847173,14.717143 113.788878,14.717143 L113.776487,12.3211714 C113.104903,12.2789626 112.63529,12.2578582 112.367647,12.2578582 C111.485419,12.2578582 110.776662,12.445315 110.230226,12.8227116 C109.691224,13.1976253 109.190634,14.0542162 108.733411,15.3949671 C108.386468,16.4017717 108.090326,17.0560085 107.843748,17.3551946 C107.597171,17.6506564 107.183316,17.8356303 106.584838,17.9039093 L106.584838,12.3621388 L102.99397,12.3621388 L102.99397,26.0415225 L106.584838,26.0415225 Z M96.9509537,26.0415225 L100.989131,26.0415225 L100.989131,19.3203878 C100.989131,17.1056659 101.12667,15.6531858 100.201073,14.22181 C99.2816723,12.7891928 97.4478267,12.2255809 96.1542222,12.2255809 C93.0726182,12.2255809 91.6997122,12.2255809 88.760603,12.2255809 C88.0691936,12.2541339 88.2302746,11.4186474 88.2860335,11.2510536 C90.0343822,4.62799231 91.4518952,2.67893773 93.8420899,2.87632606 C94.8717694,3.01412546 95.508659,3.04391993 95.9819894,3.62739487 C96.371062,4.09914056 96.5073613,4.15624662 97.2582467,3.01412546 C97.7266208,2.23450363 98.0909118,1.6237171 98.3697058,1.15072997 C98.6175228,0.705054434 99.2593687,0.12033806 98.313947,0.00985025298 C86.9527782,-0.239678391 86.7879799,4.26797586 82.9022099,11.670659 C82.4846383,12.3646217 82.0373287,12.3360687 80.7338114,12.3360687 C79.8738865,12.3360687 77.8170057,12.3360687 76.929821,12.3360687 C71.788858,12.3360687 69.1223474,16.3707358 68.8200107,18.6251836 C68.5684765,19.9895218 68.4309381,21.1577132 69.0988048,22.6052276 C69.626655,23.6890012 70.9016733,25.1650687 72.7925167,25.9980723 C73.2893897,26.1929777 73.5966828,25.8317198 73.6189863,25.8031668 C74.1778136,25.3028681 75.9026196,23.7746603 76.4007317,23.3823665 C76.7055466,23.1030434 76.346212,22.9391739 76.1231767,22.9093794 C72.9300551,22.5220514 71.7640763,21.6567704 71.205249,19.5438463 C71.0379726,17.9572911 71.788858,14.4229227 77.5109518,14.3658166 C79.8144105,14.4229227 81.6804722,14.1460824 80.815591,16.2056248 C77.7054881,23.9397713 76.9831016,25.3574913 73.7354603,31.6192947 C71.7640763,34.5130821 69.3230792,34.931446 65.3195961,33.678837 C64.2762866,33.3523394 63.9541246,34.0723723 63.8103908,34.3827313 C63.6009854,34.843304 63.2267818,35.6825148 63.083048,35.9779766 C62.8624909,36.4335836 63.0421582,36.5887631 63.3630811,36.5850388 C68.9476365,36.5291742 74.4838675,35.4602978 78.7302112,30.6162143 C82.7051954,25.5263266 83.6221182,21.4357948 86.2303917,16.2590066 C86.6529197,15.3415853 87.2650276,14.5073403 88.3219669,14.5073403 C89.9191473,14.5073403 93.5186887,14.5073403 94.5917362,14.5073403 C96.5965754,14.5073403 96.9509537,15.3415853 96.9509537,16.4266004 C95.508659,15.9821663 94.2869213,15.784778 92.5658325,15.9821663 C88.8696424,16.3707358 86.5364457,17.8753563 86.3716474,21.2135778 C86.4013854,23.7175543 88.8138836,26.3059484 93.0639446,26.2215308 C94.8271623,26.304707 96.0154447,26.0564198 96.9509537,25.0794096 L96.9509537,26.0415225 Z M90.0343822,21.0745369 C89.9513635,18.4575898 94.0936241,17.123046 96.9509537,18.5991135 L96.9509537,23.5040273 C93.7888092,24.8236738 90.2041368,23.6554825 90.0343822,21.0745369 Z M66.0246353,13.8692422 C64.9230889,12.6265647 63.5861164,12.0046053 62.0137177,12.0046053 C61.1079467,12.0046053 60.2851944,12.2255809 59.5442217,12.6650492 C58.8069662,13.1032761 58.2208791,13.6631638 57.782243,14.3459536 L57.782243,12.3522073 L54.4305186,12.3522073 L54.4305186,31.1227202 L58.0213864,31.1227202 L58.0213864,24.2923392 C58.6979267,25.0173378 59.3397727,25.527568 59.9469242,25.8242712 C60.556554,26.1234573 61.2343334,26.2724296 61.9864579,26.2724296 C63.5588565,26.2724296 64.8970681,25.6417801 66.0097663,24.3779982 C67.1125518,23.1129749 67.6726182,21.3426871 67.6726182,19.0609277 C67.6726182,16.8424815 67.1175082,15.1119197 66.0246353,13.8692422 Z M63.1784575,22.4202536 C62.6221084,23.0968363 61.9319381,23.432024 61.0980341,23.432024 C60.2331528,23.432024 59.4996146,23.0645589 58.892463,22.3283873 C58.292746,21.5946986 57.9891702,20.4563018 57.9891702,18.9131968 C57.9891702,17.569963 58.2791161,16.5544683 58.8602468,15.8729199 C59.4351822,15.1888887 60.1575687,14.8462523 61.0360798,14.8462523 C61.8737012,14.8462523 62.5787404,15.1938544 63.1474804,15.8927829 C63.7199376,16.5892285 64.0024489,17.6568635 64.0024489,19.0956879 C64.0024489,20.6350686 63.7298502,21.7449124 63.1784575,22.4202536 Z M50.1581541,21.5599384 C50.1581541,21.5599384 49.5212645,22.965244 48.2797014,23.5859621 C47.8187619,23.8156277 47.236392,23.9323227 46.5573735,23.9323227 C45.3542222,23.9323227 44.4286258,23.4816814 43.7359774,22.5530873 C43.2366262,21.8901604 42.941724,21.1440574 42.8277282,20.2949151 C44.2638275,20.2949151 53.1270013,20.2949151 53.1270013,20.2949151 C53.1270013,20.2949151 53.5643983,16.5817799 51.7008147,14.2031885 C50.4419045,12.5992531 48.75551,11.7327308 46.5573735,11.7327308 C44.301,11.7327308 42.4869799,12.5198012 41.15992,14.0691134 C39.9406605,15.4843505 39.3248354,17.2558797 39.3248354,19.3328022 C39.3248354,21.3551015 39.9394214,23.1067677 41.15992,24.5393849 C42.5018489,26.1284231 44.3208254,26.9353565 46.5573735,26.9353565 C48.127294,26.9353565 49.5076345,26.5020953 50.6661788,25.6554359 C52.7788185,24.1048823 53.6028099,21.5599384 53.6028099,21.5599384 L50.1581541,21.5599384 Z M44.1349627,15.6631173 C44.8090248,15.0423992 45.6094736,14.7394888 46.5821552,14.7394888 C47.5635104,14.7394888 48.3404166,15.0808838 48.9550027,15.7885023 C49.3378799,16.2366607 49.5386116,16.7468909 49.661281,17.2918813 C48.3763501,17.2918813 44.49058,17.2918813 43.1127177,17.2918813 C43.3332748,16.6500589 43.6603932,16.103827 44.1349627,15.6631173 Z M35.1528367,12.3621388 L27.8447144,12.3621388 L27.8447144,16.6401274 L31.4987756,15.2335804 L31.4987756,26.0564198 L35.1528367,26.0564198 L35.1528367,15.2335804 L38.8093761,16.6401274 L38.8093761,12.3621388 L35.1528367,12.3621388 Z M14.2023904,12.3621388 L17.7982145,12.3621388 L17.7982145,17.4309222 L22.9490902,17.4309222 L22.9490902,12.3621388 L26.5449144,12.3621388 L26.5449144,26.0415225 L22.9490902,26.0415225 L22.9490902,20.3383654 L17.7982145,20.3383654 L17.7982145,26.0415225 L14.2023904,26.0415225 L14.2023904,12.3621388 Z M9.19524855,23.9770144 L9.19524855,26.0415225 L12.5816674,26.0415225 L12.5816674,12.3621388 L8.92636714,12.3621388 L8.92636714,18.6003549 C8.92636714,20.1161483 8.83219669,21.1552303 8.64757305,21.7176008 C8.46542758,22.2812128 8.11600566,22.7318541 7.61541539,23.0744904 C7.11234694,23.4158853 6.54608517,23.5859621 5.91415191,23.5859621 C5.41727889,23.5859621 4.99846822,23.4667842 4.64532904,23.227187 C4.29466803,22.9875899 4.04189473,22.6536436 3.88205278,22.2228653 C3.73212352,21.7945698 3.65282209,20.8436298 3.65282209,19.3774939 L3.65282209,12.3621388 L0,12.3621388 L0,20.8759072 C0,21.9224378 0.0656714962,22.7256469 0.199492658,23.2880174 C0.33579199,23.8491465 0.574935363,24.3519281 0.914444607,24.7951208 C1.26014928,25.237072 1.76321772,25.6020542 2.43356261,25.8900673 C3.10019025,26.1718733 3.83868481,26.313397 4.64408996,26.313397 C6.47174008,26.313397 7.98961901,25.5362581 9.19524855,23.9770144 L9.19524855,23.9770144 Z" id="interfax"></path>
        </g>
    </g>
</svg>