<?xml version="1.0" encoding="UTF-8"?>
<svg width="24px" height="24px" viewBox="0 0 24 24" version="1.1" xmlns="http://www.w3.org/2000/svg" xmlns:xlink="http://www.w3.org/1999/xlink">
    <!-- Generator: Sketch 46.2 (44496) - http://www.bohemiancoding.com/sketch -->
    <title>Icons24/ calendar-b</title>
    <desc>Created with Sketch.</desc>
    <defs></defs>
    <g id="Symbols" stroke="none" stroke-width="1" fill="none" fill-rule="evenodd">
        <g id="Icons24/-calendar-b" fill="#3FA2F7">
            <path d="M19.7835324,4.03384737 L19.7835324,5.53429736 C19.7835324,6.35976086 19.1085459,7.03474736 18.2830824,7.03474736 C17.4576189,7.03474736 16.7826324,6.35976086 16.7826324,5.53429736 L16.7826324,4.03384737 L7.78425237,4.03384737 L7.78425237,5.53429736 C7.78425237,6.35976086 7.10926587,7.03474736 6.28380237,7.03474736 C5.45833888,7.03474736 4.78335238,6.35976086 4.78335238,5.53429736 L4.78335238,4.03384737 L0.284882353,4.03384737 L0.284882353,24.2834424 L24.2848824,24.2834424 L24.2834748,4.03384737 L19.7835324,4.03384737 Z M21.2839824,21.2839824 L3.28434236,21.2839824 L3.28434236,8.53375738 L21.2839824,8.53375738 L21.2839824,21.2839824 Z M18.2845224,0.284882353 L18.2844864,0.284882353 C19.1085459,0.284882353 19.7835324,0.959868853 19.7835324,1.78533234 L19.7835324,4.03528734 L16.7840724,4.03528734 L16.7840724,1.78533234 C16.7840724,0.959868853 17.4590589,0.284882353 18.2845224,0.284882353 Z M6.28380237,0.284882353 L6.28376638,0.284882353 C7.10922987,0.284882353 7.78421997,0.959868853 7.78281239,1.78533234 L7.78281239,4.03528734 L4.78335238,4.03528734 L4.78335238,1.78533234 C4.78335238,0.959868853 5.45833888,0.284882353 6.28380237,0.284882353 Z M10.7837124,19.6344954 L17.8344954,12.5837124 L15.7336134,10.4842344 L10.7837124,15.4341354 L8.83467536,13.4836944 L6.73379337,15.5845764 L10.7837124,19.6344954 Z" id="Fill-2"></path>
        </g>
    </g>
</svg>